<?xml version="1.0" encoding="UTF-8" standalone="no"?>
<!-- Created with Inkscape (http://www.inkscape.org/) -->

<svg
   xmlns:dc="http://purl.org/dc/elements/1.1/"
   xmlns:cc="http://creativecommons.org/ns#"
   xmlns:rdf="http://www.w3.org/1999/02/22-rdf-syntax-ns#"
   xmlns:svg="http://www.w3.org/2000/svg"
   xmlns="http://www.w3.org/2000/svg"
   xmlns:sodipodi="http://sodipodi.sourceforge.net/DTD/sodipodi-0.dtd"
   xmlns:inkscape="http://www.inkscape.org/namespaces/inkscape"
   width="120mm"
   height="70mm"
   viewBox="0 0 120 70"
   version="1.1"
   id="svg1206"
   inkscape:version="0.92.3 (2405546, 2018-03-11)"
   sodipodi:docname="logo_testo.svg"
   inkscape:export-filename="/home/genji/SCUOLA/2019-2020_Zuccante/documenti/dipartimento/curricolo/logo_testo.png"
   inkscape:export-xdpi="96"
   inkscape:export-ydpi="96">
  <defs
     id="defs1200" />
  <sodipodi:namedview
     id="base"
     pagecolor="#ffffff"
     bordercolor="#666666"
     borderopacity="1.0"
     inkscape:pageopacity="0.0"
     inkscape:pageshadow="2"
     inkscape:zoom="0.35"
     inkscape:cx="-571.42857"
     inkscape:cy="560"
     inkscape:document-units="mm"
     inkscape:current-layer="layer1"
     showgrid="false"
     inkscape:window-width="1533"
     inkscape:window-height="849"
     inkscape:window-x="67"
     inkscape:window-y="27"
     inkscape:window-maximized="1" />
  <metadata
     id="metadata1203">
    <rdf:RDF>
      <cc:Work
         rdf:about="">
        <dc:format>image/svg+xml</dc:format>
        <dc:type
           rdf:resource="http://purl.org/dc/dcmitype/StillImage" />
        <dc:title />
      </cc:Work>
    </rdf:RDF>
  </metadata>
  <g
     inkscape:label="Layer 1"
     inkscape:groupmode="layer"
     id="layer1"
     transform="translate(0,-227)">
    <g
       transform="translate(-229.30149,227.50565)"
       id="g2895">
      <g
         id="g898-9"
         transform="matrix(0.90121333,0,0,0.90121333,125.57507,-50.227963)">
        <path
           style="fill:#0087d4;fill-opacity:1;stroke-width:0.25015587"
           d="m 156.10417,69.217477 a 17.018478,17.018478 0 0 0 -12.1047,4.821358 2.836413,2.836413 0 0 0 -0.17786,0.161228 2.836413,2.836413 0 0 0 0,4.011302 2.836413,2.836413 0 0 0 4.01129,0 11.345652,11.345652 0 0 1 16.04516,0 11.345652,11.345652 0 0 1 0,16.045154 11.345652,11.345652 0 0 1 -16.04516,0 2.836413,2.836413 0 0 0 -4.01129,0 2.836413,2.836413 0 0 0 0,4.011276 17.018478,17.018478 0 0 0 24.06773,0 17.018478,17.018478 0 0 0 0,-24.067732 17.018478,17.018478 0 0 0 -11.78517,-4.982586 z"
           id="path20-3-35-5-0"
           inkscape:connector-curvature="0" />
        <path
           inkscape:connector-curvature="0"
           style="fill:#ff0070;fill-opacity:1;stroke-width:0.25015587"
           d="m 143.99947,83.157797 a 17.018478,17.018478 0 0 1 12.1047,4.82137 2.8364131,2.8364131 0 0 1 0.17784,0.161229 2.8364131,2.8364131 0 0 1 0,4.011288 2.8364131,2.8364131 0 0 1 -4.01129,0 11.345652,11.345652 0 0 0 -16.04514,0 11.345652,11.345652 0 0 0 0,16.045146 11.345652,11.345652 0 0 0 16.04514,0 2.8364131,2.8364131 0 0 1 4.01129,0 2.8364131,2.8364131 0 0 1 0,4.01129 17.018478,17.018478 0 0 1 -24.06773,0 17.018478,17.018478 0 0 1 0,-24.067724 17.018478,17.018478 0 0 1 11.78519,-4.982599 z"
           id="path20-3-3-6-6-1" />
      </g>
      <text
         id="text1345"
         y="49.294395"
         x="275.22202"
         style="font-style:normal;font-variant:normal;font-weight:normal;font-stretch:normal;font-size:8.46666622px;line-height:1.25;font-family:Anton;-inkscape-font-specification:Anton;letter-spacing:0px;word-spacing:0px;fill:#000000;fill-opacity:1;stroke:none;stroke-width:0.26458332"
         xml:space="preserve"><tspan
           style="font-style:normal;font-variant:normal;font-weight:normal;font-stretch:normal;font-size:8.46666622px;font-family:Anton;-inkscape-font-specification:Anton;stroke-width:0.26458332"
           y="49.294395"
           x="275.22202"
           id="tspan1343"
           sodipodi:role="line">ITIS Carlo Zuccante</tspan></text>
      <text
         id="text1349"
         y="55.663651"
         x="274.6546"
         style="font-style:normal;font-weight:normal;font-size:10.58333302px;line-height:1.25;font-family:sans-serif;letter-spacing:0px;word-spacing:0px;fill:#000000;fill-opacity:1;stroke:none;stroke-width:0.26458332"
         xml:space="preserve"><tspan
           style="font-style:normal;font-variant:normal;font-weight:500;font-stretch:normal;font-size:6.3499999px;font-family:Ubuntu;-inkscape-font-specification:'Ubuntu Medium';stroke-width:0.26458332"
           y="55.663651"
           x="274.6546"
           id="tspan1347"
           sodipodi:role="line">Computer Science</tspan></text>
    </g>
  </g>
</svg>
